<?xml version="1.0" encoding="UTF-8" standalone="no"?>
<svg
   viewBox="0 0 523.01715 516.77008"
   version="1.1"
   id="svg19"
   sodipodi:docname="logo-tetras-lab-orange-white-contourGreen.svg"
   inkscape:version="1.1 (c4e8f9ed74, 2021-05-24)"
   width="523.01715"
   height="516.77008"
   inkscape:export-filename="/home/daxid/Shared_Tetras/Clients/Tetras-Lab/work-logo/logo-tetras-lab-orange-white-100x100.png"
   inkscape:export-xdpi="235"
   inkscape:export-ydpi="235"
   xmlns:inkscape="http://www.inkscape.org/namespaces/inkscape"
   xmlns:sodipodi="http://sodipodi.sourceforge.net/DTD/sodipodi-0.dtd"
   xmlns="http://www.w3.org/2000/svg"
   xmlns:svg="http://www.w3.org/2000/svg"
   xmlns:rdf="http://www.w3.org/1999/02/22-rdf-syntax-ns#"
   xmlns:cc="http://creativecommons.org/ns#"
   xmlns:dc="http://purl.org/dc/elements/1.1/">
  <metadata
     id="metadata25">
    <rdf:RDF>
      <cc:Work
         rdf:about="">
        <dc:format>image/svg+xml</dc:format>
        <dc:type
           rdf:resource="http://purl.org/dc/dcmitype/StillImage" />
      </cc:Work>
    </rdf:RDF>
  </metadata>
  <defs
     id="defs23" />
  <sodipodi:namedview
     pagecolor="#6b6b6b"
     bordercolor="#666666"
     borderopacity="1"
     objecttolerance="10"
     gridtolerance="10"
     guidetolerance="10"
     inkscape:pageopacity="0"
     inkscape:pageshadow="2"
     inkscape:window-width="1555"
     inkscape:window-height="871"
     id="namedview21"
     showgrid="false"
     inkscape:zoom="1.4368414"
     inkscape:cx="285.00014"
     inkscape:cy="306.57524"
     inkscape:window-x="45"
     inkscape:window-y="0"
     inkscape:window-maximized="1"
     inkscape:current-layer="svg19"
     inkscape:document-rotation="0"
     inkscape:pagecheckerboard="0" />
  <g
     id="g54"
     transform="translate(11.092619,6.8989834)">
    <g
       id="g927"
       transform="translate(-0.64404244,0.0265086)"
       style="fill:#5a8264;fill-opacity:1;stroke:#5a8264;stroke-opacity:1">
      <ellipse
         style="opacity:1;fill:#5a8264;fill-opacity:1;stroke:#5a8264;stroke-width:2.35894;stroke-miterlimit:4;stroke-dasharray:none;stroke-opacity:1;paint-order:fill"
         id="path1027-3-6-3"
         cx="474.8194"
         cy="158.85283"
         rx="36.569706"
         ry="35.987278" />
      <ellipse
         style="opacity:1;fill:#5a8264;fill-opacity:1;stroke:#5a8264;stroke-width:3.97186;stroke-miterlimit:4;stroke-dasharray:none;stroke-opacity:1;paint-order:fill"
         id="path1027-3-6-5"
         cx="53.111519"
         cy="447.26517"
         rx="61.574165"
         ry="60.593502" />
      <ellipse
         style="opacity:1;fill:#5a8264;fill-opacity:1;stroke:#5a8264;stroke-width:3.12005;stroke-miterlimit:4;stroke-dasharray:none;stroke-opacity:1;paint-order:fill"
         id="path1027-3-6-7"
         cx="429.89014"
         cy="42.233047"
         rx="48.368862"
         ry="47.598515" />
      <ellipse
         style="opacity:1;fill:#5a8264;fill-opacity:1;stroke:#5a8264;stroke-width:2.40502;stroke-miterlimit:4;stroke-dasharray:none;stroke-opacity:1;paint-order:fill"
         id="path1027-3-6"
         cx="76.358002"
         cy="85.269112"
         rx="37.284111"
         ry="36.690304" />
      <ellipse
         style="opacity:1;fill:#5a8264;fill-opacity:1;stroke:#5a8264;stroke-width:14.9784;stroke-miterlimit:4;stroke-dasharray:none;stroke-opacity:1;paint-order:fill"
         id="path1027-3"
         cx="271.48926"
         cy="264.88184"
         rx="232.20433"
         ry="228.50612" />
    </g>
    <ellipse
       style="opacity:1;fill:none;fill-opacity:0;stroke:#9e9e9e;stroke-width:13.8274;stroke-miterlimit:4;stroke-dasharray:none;stroke-opacity:1;paint-order:fill"
       id="path1027"
       cx="270.81808"
       cy="261.79074"
       rx="214.36037"
       ry="210.94635" />
    <path
       id="use1164"
       d="m 461.86087,40.536528 c 0.39765,6.509665 -1.15143,12.990387 -4.44841,18.616661 -3.29952,5.626274 -8.19717,10.143903 -14.07135,12.976546 -5.87544,2.832641 -12.46061,3.853198 -18.91742,2.929537 -6.45555,-0.922401 -12.49081,-3.746235 -17.33688,-8.112857 -4.84606,-4.365364 -8.28273,-10.073433 -9.87208,-16.398115 -1.58936,-6.324682 -1.26091,-12.981579 0.94378,-19.11876 2.20723,-6.138439 6.19004,-11.479058 11.44383,-15.34484 5.25253,-3.865782 11.53695,-6.080553 18.0529,-6.3624332 4.27224,-0.2340606 8.54827,0.3762592 12.58266,1.8007602 4.03441,1.423242 7.74919,3.629204 10.92789,6.493306 3.1787,2.864102 5.76092,6.327198 7.59566,10.191721 1.83599,3.864525 2.88927,8.054972 3.09942,12.328474 z"
       fill="#767677"
       style="mix-blend-mode:normal;stroke:#ececff;stroke-width:5;stroke-miterlimit:4;stroke-dasharray:none;stroke-opacity:0.993975" />
    <path
       id="use1169"
       d="m 270.87064,420.02875 c -87.99843,0 -165.34087,-31.29875 -205.331385,-77.52077 15.515472,41.58233 43.515425,77.45407 80.224835,102.79055 36.71066,25.33522 80.3734,38.91453 125.10655,38.91453 44.7357,0 88.39715,-13.57931 125.10783,-38.91453 36.71067,-25.33648 64.70935,-61.20822 80.2261,-102.79055 -39.89275,46.22202 -116.94186,77.52077 -205.33393,77.52077 z"
       style="mix-blend-mode:normal;fill:#f37726;fill-opacity:1;stroke-width:1.26407" />
    <path
       id="use1179"
       d="m 92.312463,444.53972 c 0.512173,8.20095 -1.429533,16.36665 -5.575936,23.45896 -4.146402,7.09355 -10.310009,12.79155 -17.70558,16.36791 -7.396835,3.57635 -15.689642,4.86997 -23.823893,3.71603 -8.13425,-1.15269 -15.741234,-4.70135 -21.851989,-10.19298 -6.109496,-5.49289 -10.445918,-12.67956 -12.456828,-20.6452 -2.010912,-7.96562 -1.60571,-16.35029 1.166529,-24.08311 2.770981,-7.73534 7.780642,-14.469 14.393495,-19.34401 6.611596,-4.87753 14.525627,-7.67368 22.734123,-8.0361 5.375853,-0.28817 10.75674,0.487 15.834359,2.27895 5.076352,1.79196 9.751284,4.56797 13.755488,8.16697 4.004204,3.59901 7.260921,7.95304 9.5814,12.81043 2.321738,4.8574 3.663185,10.12629 3.948832,15.50215 z"
       fill="#9e9e9e"
       style="mix-blend-mode:normal;stroke:#ffffff;stroke-width:5;stroke-miterlimit:4;stroke-dasharray:none;stroke-opacity:1" />
    <path
       id="use1184"
       d="m 76.67442,108.93016 c -4.698839,0.12962 -9.332238,-1.1338 -13.315052,-3.62919 -3.984071,-2.49666 -7.14012,-6.115797 -9.07301,-10.400619 -1.932892,-4.284831 -2.555797,-9.04659 -1.789436,-13.685018 0.766361,-4.638438 2.888012,-8.945917 6.095655,-12.381329 3.207643,-3.43667 7.359076,-5.84775 11.934593,-6.929969 4.574258,-1.082217 9.367483,-0.787753 13.775625,0.846899 4.408153,1.633393 8.233664,4.533989 10.997098,8.336851 2.763427,3.802863 4.340197,8.33811 4.533997,13.035687 0.18372,6.351109 -2.14557,12.517236 -6.481994,17.161958 -4.335164,4.64473 -10.328887,7.39054 -16.677476,7.64473 z"
       fill="#616262"
       style="mix-blend-mode:normal;stroke:#ffffff;stroke-width:5;stroke-miterlimit:4;stroke-dasharray:none;stroke-opacity:1" />
    <g
       id="g875"
       style="fill:#ffffff;fill-opacity:1"
       transform="matrix(1.2583926,0,0,1.2583926,-39.562051,-23.649049)">
      <g
         id="g861"
         style="fill:#ffffff;fill-opacity:1">
        <g
           transform="translate(3,-3)"
           id="g16"
           style="fill:#ffffff;fill-opacity:1">
          <path
             d="m 424.022,152.867 c -6.554,-2.971 -13.972,-3.334 -23.108,-1.144 0.011,-0.023 0.019,-0.042 0.022,-0.06 0.861,-2.27 1.291,-3.394 3.689,-6.773 1.362,-1.922 6.55,-7.936 16.199,-4.953 0.536,0.177 1.133,0.019 1.51,-0.381 0.392,-0.409 0.517,-1.001 0.336,-1.529 -1.503,-4.229 -6.27,-7.173 -12.333,-7.667 -4.149,-0.344 -8.861,1.212 -11.65,2.703 -2.719,1.449 -6.727,1.671 -9.978,1.26 -1.091,-0.136 -2.401,-0.4 -3.892,-0.698 -6.588,-1.287 -16.543,-3.251 -26.128,0.872 -18.676,8.048 -28.427,25.64 -37.031,41.168 -2.816,5.115 -5.488,9.936 -8.278,14.006 -10.095,14.753 -21.976,24.304 -36.604,29.284 -7.339,1.981 -15.788,3.541 -17.756,3.734 -19.989,1.917 -69.341,1.261 -95.575,-45.85 -0.396,-0.72 -1.31,-0.974 -2.016,-0.577 -0.638,0.35 -0.876,1.087 -0.679,1.748 -0.118,0.204 -0.212,0.418 -0.238,0.664 -2.582,31.352 1.721,58.409 12.719,81.075 l 105.738,-29.914 c 11.212,-2.137 22.704,-1.201 32.424,2.763 12.058,4.942 20.466,13.825 23.664,25.048 7.712,27.098 -7.117,51.806 -36.079,60.086 -8.118,2.314 -16.253,3.016 -24.166,2.058 -7.448,-0.884 -13.435,-3.089 -17.581,-5.075 l -18.997,5.414 c 11.19,4.844 22.141,7.72 32.641,8.958 28.121,3.364 52.931,-4.681 70.056,-16.471 24.428,-16.81 35.354,-40.349 41.73,-89.924 2.276,-17.698 10.683,-41.768 27.468,-56.235 0.249,-0.211 0.997,-1.815 1.219,-2.234 2.658,-4.908 6.773,-7.774 12.27,-8.521 0.652,-0.087 1.177,-0.6 1.272,-1.265 0.087,-0.657 -0.265,-1.291 -0.868,-1.57 z"
             id="path10"
             style="fill:#ffffff;fill-opacity:1" />
          <path
             d="m 233.364,215.632 c 0.243,0.042 0.507,0.084 0.733,0.114 2.768,0.332 5.426,0.525 7.962,0.652 L 216.671,90.849 c -3.654,-7.653 -12.401,-11.481 -20.533,-8.895 -7.517,2.398 -12.285,9.469 -11.805,17.295 z"
             id="path14"
             style="fill:#ffffff;fill-opacity:1" />
          <path
             d="m 256.314,215.753 2.688,-116.354 c -2.749,-6.213 -9,-10.064 -15.829,-9.547 -7.947,0.593 -14.304,7.033 -14.769,14.983 -0.007,0.061 -0.041,0.11 -0.052,0.162 l 20.026,111.591 c 2.722,-0.159 5.358,-0.441 7.936,-0.835 z"
             id="path16"
             style="fill:#ffffff;fill-opacity:1" />
          <path
             d="m 161.78,250.062 -61.429,-20.594 c -0.204,0.038 -0.381,0.133 -0.59,0.148 -5.583,0.264 -10.335,4.255 -11.558,9.702 -1.352,6.059 1.97,12.145 7.738,14.334 l 70.887,8.471 c -1.877,-3.914 -3.564,-7.912 -5.048,-12.061 z"
             id="path18"
             style="fill:#ffffff;fill-opacity:1" />
          <path
             d="m 100.562,221.665 58.372,19.59 c -1.556,-5.554 -2.797,-11.319 -3.741,-17.298 L 99.531,190.09 c -0.215,0.068 -0.415,0.177 -0.648,0.204 -7.06,0.725 -12.806,6.376 -13.644,13.44 -1.001,8.395 5.021,16.032 13.417,17.03 0.744,0.101 1.37,0.456 1.906,0.901 z"
             id="path20"
             style="fill:#ffffff;fill-opacity:1" />
          <path
             d="m 154.007,214.511 c -0.8,-8.059 -1.11,-16.455 -0.811,-25.203 l -34.585,-32.024 c -0.048,-0.027 -0.106,-0.023 -0.139,-0.053 -6.966,-3.877 -15.818,-2.016 -20.605,4.368 -4.111,5.489 -4.259,12.82 -0.487,18.472 z"
             id="path22"
             style="fill:#ffffff;fill-opacity:1" />
          <path
             d="m 153.754,179.667 c 0.034,-0.517 0.046,-1.016 0.083,-1.541 0.019,-0.365 0.08,-0.717 0.163,-1.064 0.162,-2.722 1.676,-5.263 4.152,-6.64 3.95,-2.168 9.069,-0.613 11.164,3.196 8.667,15.574 20.14,25.581 31.975,31.999 l -59.319,-82.325 c -6.425,-4.493 -14.949,-4.092 -20.899,1.061 -6.452,5.583 -7.74,15.048 -3.1,22.168 z"
             id="path24"
             style="fill:#ffffff;fill-opacity:1" />
          <path
             d="m 214.644,211.393 c 3.627,1.22 7.21,2.175 10.672,2.903 L 177.017,102.4 c -5.312,-6.206 -14.209,-7.814 -21.334,-3.775 -7.134,4.043 -10.314,12.512 -7.705,20.251 z"
             id="path26"
             style="fill:#ffffff;fill-opacity:1" />
          <path
             d="m 270.746,213.118 25.233,-92.796 c 0.023,-7.324 -5.277,-13.614 -12.54,-14.769 -0.08,-0.019 -0.159,-0.031 -0.238,-0.042 -6.637,-0.959 -13.137,2.666 -15.814,8.83 -0.121,0.268 -0.31,0.45 -0.468,0.658 l -3.247,99.218 c 2.137,-0.03 4.62,-0.046 7.074,-1.099 z"
             id="path28"
             style="fill:#ffffff;fill-opacity:1" />
        </g>
        <path
           d="m 262.084,305.494 c 6.698,3.575 20.696,8.788 39.205,3.511 25.585,-7.316 38.745,-28.993 31.988,-52.72 -2.684,-9.423 -9.85,-16.943 -20.191,-21.168 -10.147,-4.145 -22.167,-4.601 -33.848,-1.299 -0.011,0 -0.029,-0.007 -0.041,0 L 127.96,277.01 c -0.403,0.132 -0.735,0.405 -0.928,0.745 -0.483,0.376 -0.71,1.022 -0.54,1.645 1.794,6.251 17.687,13.915 25.033,15.95 68.859,-22.773 68.848,-23.304 0,0 3.636,7.38 19.805,15.942 30.764,15.682 42.216,-16.303 42.19303,-16.32564 0,0 5.787,8.007 19.155,11.386 32.912,7.618 0.026,-0.014 0.057,-0.014 0.079,-0.014 l 46.601,-13.308 c 0.06,0.049 0.117,0.128 0.203,0.166 z"
           id="path12-3"
           style="fill:#ffffff;fill-opacity:1" />
      </g>
    </g>
  </g>
</svg>
